479592 978223 525
141825 671165 509
402046 730282 509
111875 954940 525
416515 965624 525
428967 626553 509
377026 789722 509
251014 470443 449
7256 732245 509
406271 617896 470
401481 660271 509
579141 979096 525
302614 818548 509
88278 500055 449
18484 174833 383
524508 531266 408
70398 966325 525
369757 479689 449
121795 610258 470
71273 929375 525
21503 524540 470
232712 752581 509
173807 700293 509
45455 771719 509
150882 186974 383
215902 434231 449
321657 493105 449
731838 743765 424
84665 425127 449
806610 998953 525
11313 539397 470
189184 908394 525
322085 552636 470
264512 560180 470
221445 728757 509
276751 487984 449
21268 823253 509
38910 740885 509
119113 810922 509
266207 733316 509
151531 743821 509
89027 917988 525
96049 120259 354
434614 625271 470
628403 657583 429
493544 689939 509
943415 968020 414
450743 609780 470
580226 590150 434
952106 997891 458
60737 334866 443
108333 439592 449
364076 604121 470
51696 559439 470
285579 749877 509
923061 928209 476
516027 521700 439
631157 955398 525
345337 997668 525
710940 985409 525
384095 856835 525
307987 542633 470
10302 203247 383
193580 494991 449
339570 625423 470
352427 863350 525
738026 909127 525
39940 701841 509
145300 441448 449
196751 468182 449
145092 945123 525
376727 780370 509
114216 992451 525
421865 614531 470
485333 724077 509
54639 369654 443
327579 907465 525
586699 776367 509
448635 787018 509
19657 758202 509
145952 541819 470
308646 728317 509
110216 872329 525
144765 382506 443
250047 658671 509
136306 935647 525
30519 150852 375
13183 393650 443
192007 329517 443
549402 913282 525
100573 237495 443
762588 839857 525
329719 619435 470
17293 618154 470
407036 813694 509
111905 513835 470
256832 652231 509
48274 110507 354
101164 240667 443
507873 570969 470
223136 418310 449
641754 673435 442
73852 501794 449
47172 421622 449
547241 607880 434
98614 108629 354
519437 958778 525
690444 849638 525
27662 134586 354
274930 654531 509
548691 553272 377
12165 334240 443
139869 874145 525
208432 301274 443
556102 868959 525
306757 837468 509
681339 827909 504
879041 973353 507
77219 930758 525
276596 941335 525
516613 569781 452
382347 525076 470
205065 312542 443
765619 914404 525
311822 686342 509
214833 843514 525
855973 949346 507
550383 947395 525
248099 403470 441
190670 888269 525
871305 960121 507
312488 678400 509
265387 956276 525
568815 801081 509
309498 827437 509
603505 953539 525
348329 593993 470
57549 535600 470
568285 620635 447
275459 568178 470
484114 649273 509
725431 806024 468
370963 733948 509
780228 802597 468
17873 262911 443
721743 842830 525
535133 698928 509
41884 353597 443
251664 364775 441
222084 724711 509
606886 987793 525
302439 588210 470
273607 573878 470
438661 448795 400
469206 797561 509
424099 518829 470
72924 728597 509
563246 812957 509
629992 713970 504
509386 567511 470
146217 438519 449
347266 673553 509
202737 962844 525
740975 903825 525
186276 936827 525
30352 548502 470
585561 704873 509
33950 709560 509
395742 796016 509
565002 698751 509
697699 994026 525
404301 569116 470
118151 764511 509
59530 237310 443
134077 365550 443
654067 712165 504
84463 789216 509
138017 162294 383
74835 533212 470
601431 985064 525
826627 908362 525
737207 890247 525
96473 340395 443
316344 479429 449
575009 923660 525
10915 431485 449
101786 711566 509
464514 703006 509
8407 635336 509
456869 650069 509
176605 653545 509
544692 976141 525
135005 678007 509
374488 392260 436
401313 972712 525
77675 544017 470
501391 975805 525
396580 476099 449
37249 523386 470
228331 543955 470
117564 539818 470
89439 442783 449
80606 945127 525
40124 549314 470
775328 938934 525
115101 431517 449
176526 358648 443
693463 793265 504
101187 651426 509
262855 555694 470
416169 689597 509
538325 617108 452
72100 79591 351
157719 256500 443
131341 997276 525
20471 874071 525
395797 863189 525
795158 973791 525
198118 926872 525
666830 862954 525
123575 819967 509
662374 834266 504
504238 936154 525
215286 974963 525
165242 623085 470
22686 719200 509
802804 879743 525
691502 802431 504
19939 321636 443
912813 944611 507
416896 998183 525
396447 711486 509
62567 998413 525
256923 801620 509
619823 793769 509
170157 500647 449
541240 616614 452
480344 603670 470
402602 929534 525
318921 744515 509
577568 636737 509
576650 925603 525
40838 370703 443
518212 594120 452
150385 334434 443
79617 410671 449
687937 827032 504
39200 535571 470
611257 638005 509
72001 432745 449
